// Jest Snapshot v1, https://goo.gl/fbAQLP

exports[`Matches shallow shapshot 1`] = `
<div
  className="src-shared-components-Content-___style__container___kZF98"
>
  <div
    className="src-shared-components-Content-___style__build-timestamp___2PJGW"
  >
    Build Timestamp:
    Wed, 29 Nov 2017 07:40:00 GMT
  </div>
  <h1>
    Topcoder Community App
  </h1>
  <p>
    Isomorphic ReactJS App for new version of Topcoder community website. Technological stack includes:
  </p>
  <ul>
    <li>
      Autoprefixer;
    </li>
    <li>
      Babel with latest JS standard support both client- and server-side;
    </li>
    <li>
      ESlint (AirBnB style, run with
      <code>
        $ npm run lint:js
      </code>
      );
    </li>
    <li>
      ExpressJS server;
    </li>
    <li>
      Font loading (Roboto fonts are included into the repo);
    </li>
    <li>
      General Topcoder styles (check
      <code>
        /src/styles
      </code>
      );
    </li>
    <li>
      Hot reload of JS code and SCSS styles in dev environment (start it with
       
      <code>
        $ npm run dev
      </code>
      );
    </li>
    <li>
      Loading of .svg assets as ReactJS components with
       
      <code>
        babel-plugin-inline-react-svg
      </code>
      ;
    </li>
    <li>
      ReactJS;
    </li>
    <li>
      React CSS Modules (with
       
      <code>
        babel-plugin-react-css-modules
      </code>
      );
    </li>
    <li>
      Redux with Flex Standard Actions, redux-promise middleware, and a custom pattern of server-side data fetching;
    </li>
    <li>
      SCSS styles;
    </li>
    <li>
      Topcoder API v2 and v3 service (see
      <code>
        topcoder-react-lib/src/services/api.js
      </code>
      ), with support of TC authentication (look for auth tokens either in
      <code>
        store.auth
      </code>
       
      of Redux store, or in
      <code>
        v3jwt
      </code>
       
      and
      <code>
        tcjwt
      </code>
       
      cookies of the front-end requests to the server);
    </li>
    <li>
      Stylefmt;
    </li>
    <li>
      Stylelint for SCSS (standard Stylelint style, run with
       
      <code>
        $ npm run lint:scss
      </code>
      ;
    </li>
    <li>
      Webpack;
    </li>
  </ul>
  <h3>
    Main Topcoder website
  </h3>
  <ul>
    <li>
      <strong>
        Challenge Details Page
      </strong>
       
      is available at the endpoint
      <code>
        /challenges/:challengeId
      </code>
      .
      <br />
      Here are some demo links valid in
       
      <strong>
        production
      </strong>
       
      environment:
      <br />
      ‌
      <Link
        replace={false}
        to="/challenges/30058637"
      >
        data science challenge
      </Link>
      , ‌
      <Link
        replace={false}
        to="/challenges/30058473"
      >
        code challenge
      </Link>
      , ‌
      <Link
        replace={false}
        to="/challenges/30058433"
      >
        design challenge
      </Link>
      , ‌
      <Link
        replace={false}
        to="/challenges/30058529"
      >
        design challenge 2
      </Link>
      , ‌
      <Link
        replace={false}
        to="/challenges/30058281"
      >
        design challenge 3
      </Link>
      , ‌
      <Link
        replace={false}
        to="/challenges/30057690"
      >
        design challenge 4
      </Link>
      .
      <br />
      Here are some demo links valid in
       
      <strong>
        development
      </strong>
      ‌ environment:
      <br />
      ‌
      <Link
        replace={false}
        to="/challenges/30049604"
      >
        data science challenge
      </Link>
      , ‌
      <Link
        replace={false}
        to="/challenges/30050680"
      >
        code challenge
      </Link>
      , ‌
      <Link
        replace={false}
        to="/challenges/30050463"
      >
        code challenge 2
      </Link>
      , ‌
      <Link
        replace={false}
        to="/challenges/30049552"
      >
        design challenge
      </Link>
      , ‌
      <Link
        replace={false}
        to="/challenges/30050696"
      >
        design challenge 2
      </Link>
      .
    </li>
    <li>
      <Link
        replace={false}
        to="/crowd-for-good"
      >
        Crowd 4 Good Page
      </Link>
    </li>
    <li>
      <Link
        replace={false}
        to="/my-dashboard"
      >
        Dashboard
      </Link>
    </li>
    <li>
      <Link
        replace={false}
        to="/challenges"
      >
        Main Challenge Listing
      </Link>
    </li>
    <li>
      <Link
        replace={false}
        to="/community/member-programs"
      >
        Member Programs Page
      </Link>
    </li>
    <li>
      Public Profile Page available at the
       
      <code>
        /members/:handle
      </code>
       
      endpoint. Valid links on dev:
      <br />
      <Link
        replace={false}
        to="/members/TonyJ"
      >
        Profile 1.
      </Link>
      <br />
      <Link
        replace={false}
        to="/members/mess"
      >
        Profile 2.
      </Link>
    </li>
    <li>
      Stand-alone terms of use page: ‌
      <Link
        replace={false}
        to="/challenges/terms/detail/21193"
      >
        simple
      </Link>
      , ‌
      <Link
        replace={false}
        to="/challenges/terms/detail/21153"
      >
        DocuSign
      </Link>
      .
    </li>
    <li>
      <a
        href="/challenges/30050696/my-submissions"
      >
        Submission Management Page
      </a>
       
      – generally available at the endpoint
      <code>
        /challenges/:challengeId/my-submissions
      </code>
      ; the link here leads to a test challenge.
    </li>
    <li>
      <Link
        replace={false}
        to="/settings/profile"
      >
        Settings Profile Page
      </Link>
    </li>
    <li>
      <Link
        replace={false}
        to="/community/development"
      >
        Track Home Page - Development
      </Link>
    </li>
  </ul>
  <h3>
    TCO Assets
  </h3>
  <ul>
    <li>
      <Link
        replace={false}
        to="/community/hall-of-fame/tco"
      >
        TCO Hall of Fame
      </Link>
    </li>
    <li>
      TCO Scoreboard demo is mounted on
       
      <code>
        /scoreboard/:id
      </code>
      , where
       
      <code>
        :id
      </code>
       
      is the competition ID, not related to the regular challenge IDs. Here are two demo links for the scoreboards for the competitions created by the scoreboard init script: ‌
      <Link
        replace={false}
        to="/scoreboard/123"
      >
        ID = 123
      </Link>
      , ‌
      <Link
        replace={false}
        to="/scoreboard/1234"
      >
        ID = 1234
      </Link>
      .
    </li>
  </ul>
  <h3>
    Separate Topcoder Communities
  </h3>
  <ul>
    <li>
      <Link
        replace={false}
        to="/__community__/blockchain"
      >
        Blockchain Community
      </Link>
    </li>
    <li>
      <Link
        replace={false}
        to="/__community__/cognitive"
      >
        Cognitive Community
      </Link>
    </li>
    <li>
      <Link
        replace={false}
        to="/__community__/community-2"
      >
        Community 2
      </Link>
    </li>
    <li>
      <Link
        replace={false}
        to="/__community__/cs"
      >
        CS community
      </Link>
    </li>
    <li>
      <Link
        replace={false}
        to="/__community__/demo-expert"
      >
        Demo Expert Community
      </Link>
    </li>
    <li>
      <Link
        replace={false}
        to="/__community__/iot"
      >
        IoT Community
      </Link>
    </li>
    <li>
      <Link
        replace={false}
        to="/__community__/mobile"
      >
        Mobile Community
      </Link>
    </li>
    <li>
      <Link
        replace={false}
        to="/__community__/qa"
      >
        QA Community
      </Link>
    </li>
    <li>
      <Link
        replace={false}
        to="/__community__/srmx"
      >
        SRMX Community
      </Link>
    </li>
    <li>
      <Link
        replace={false}
        to="/__community__/taskforce"
      >
        Taskforce community
      </Link>
    </li>
    <li>
      <Link
        replace={false}
        to="/__community__/tc-prod-dev"
      >
        Topcoder Product Development community
      </Link>
    </li>
    <li>
      <Link
        replace={false}
        to="/__community__/wipro"
      >
        TopGear (Wipro) community
      </Link>
    </li>
    <li>
      <Link
        replace={false}
        to="/__community__/veterans"
      >
        Veterans Community
      </Link>
    </li>
  </ul>
  <h3>
    Previews of Contentful Components
  </h3>
  <ul>
    <li>
      <Link
        replace={false}
        to="/examples/contentful/slider/6VvsA1RgkwaEamS66wiEMy"
      >
        <code>
          ContentSlider
        </code>
      </Link>
    </li>
    <li>
      <Link
        replace={false}
        to="/examples/contentful/accordion/2aRYmMs4rmwEIISCag8MOm"
      >
        <code>
          Accordion
        </code>
      </Link>
    </li>
    <li>
      <Link
        replace={false}
        to="/examples/contentful/banner/5il6oFtWp2Ua6WGs60M2mK"
      >
        <code>
          Banner
        </code>
      </Link>
    </li>
    <li>
      <Link
        replace={false}
        to="/examples/contentful/contentblock/6CVFvEiZFKYQMwW82aYCWS"
      >
        <code>
          ContentBlock
        </code>
      </Link>
    </li>
    <li>
      <Link
        replace={false}
        to="/examples/contentful/blogpost/1tKTZsVzk40kSYgG0imCKS"
      >
        <code>
          BlogPost
        </code>
      </Link>
    </li>
    <li>
      <Link
        replace={false}
        to="/examples/contentful/blog/TCO Blog/1"
      >
        <code>
          Blog
        </code>
      </Link>
    </li>
    <li>
      <Link
        replace={false}
        to="/examples/contentful/blog-feed/3jr0kn837aKMGKS6mqM6wu"
      >
        <code>
          Blog Feed
        </code>
      </Link>
    </li>
    <li>
      <Link
        replace={false}
        to="/examples/contentful/quote/3o7LgdSIsougYimQ2GyUw4"
      >
        <code>
          Quote
        </code>
      </Link>
    </li>
    <li>
      <Link
        replace={false}
        to="/examples/contentful/video/4U4DkVDy3C0WcImaEw42mw"
      >
        <code>
          Video
        </code>
      </Link>
    </li>
    <li>
      <Link
        replace={false}
        to="/examples/contentful/route/4eL1gLh8gU66ewMwIIYu4y"
      >
        <code>
          Route
        </code>
      </Link>
    </li>
    <li>
      <Link
        replace={false}
        to="/examples/contentful/viewport/YomgM8zPCoEaUqaKouyGG"
      >
        <code>
          Viewport
        </code>
      </Link>
    </li>
  </ul>
  <h3>
    Previews of Contentful Components with CMS SpaceName/Environment Props
  </h3>
  <ul>
    <li>
      <Link
        replace={false}
        to="/examples/contentful/accordion2/5dPXVGcG0gMgSKQik60oQg"
      >
        <code>
          Accordion 2
        </code>
      </Link>
    </li>
    <li>
      <Link
        replace={false}
        to="/examples/contentful/banner2/4S8Evqme2QKsgcsyquAKiC"
      >
        <code>
          Banner 2
        </code>
      </Link>
    </li>
    <li>
      <Link
        replace={false}
        to="/examples/contentful/contentblock2/5qSze51hO8GcECUwOWOw2u"
      >
        <code>
          Content block 2
        </code>
      </Link>
    </li>
    <li>
      <Link
        replace={false}
        to="/examples/contentful/quote2/pVdDfed4NUY4gUiAS2CCo"
      >
        <code>
          Quote 2
        </code>
      </Link>
    </li>
    <li>
      <Link
        replace={false}
        to="/examples/contentful/video2/2SPlrtNnJm0UWUO8qE6IWy"
      >
        <code>
          Video 2
        </code>
      </Link>
    </li>
    <li>
      <Link
        replace={false}
        to="/examples/contentful/route2/43soieJAakkqgQqeO4Gcga"
      >
        <code>
          route 2
        </code>
      </Link>
    </li>
    <li>
      <Link
        replace={false}
        to="/examples/contentful/viewport2/4X1xGrz6nuYIuMwayWce8k"
      >
        <code>
          Viewport 2
        </code>
      </Link>
    </li>
  </ul>
  <h3>
    Previews of Contentful Components With environment variable override for CMS configuration.
  </h3>
  <ul>
    <li>
      <Link
        replace={false}
        to="/examples/contentful/accordion/1OnBjdMPHauCWEYUaSMCGQ"
      >
        <code>
          Accordion 3
        </code>
      </Link>
    </li>
    <li>
      <Link
        replace={false}
        to="/examples/contentful/banner/oVlavhUxlQeiOmwC84soa"
      >
        <code>
          Banner 3
        </code>
      </Link>
    </li>
    <li>
      <Link
        replace={false}
        to="/examples/contentful/contentblock/3xy0Nda3CUIQkEwEMUYgQw"
      >
        <code>
          ContentBlock 3
        </code>
      </Link>
    </li>
    <li>
      <Link
        replace={false}
        to="/examples/contentful/quote/3JD9i97PZYmSUCw28M60mE"
      >
        <code>
          Quote 3
        </code>
      </Link>
    </li>
    <li>
      <Link
        replace={false}
        to="/examples/contentful/video/5JCnYCDPSEmIGwkqK2w6qg"
      >
        <code>
          Video 3
        </code>
      </Link>
    </li>
    <li>
      <Link
        replace={false}
        to="/examples/contentful/route/3JqptKawE8m2ogWCU4wsKS"
      >
        <code>
          Route 3
        </code>
      </Link>
    </li>
    <li>
      <Link
        replace={false}
        to="/examples/contentful/viewport/6ImH9RiRtC6QyiKEYaC0Ae"
      >
        <code>
          Viewport 3
        </code>
      </Link>
    </li>
  </ul>
  <h3>
    Sandbox
  </h3>
  <p>
    The right place to put any experimental and proof-of-concept stuff.
  </p>
  <ul>
    <li>
      <Link
        replace={false}
        to="/sandbox/cms/dashboard/announcements"
      >
        A simple list of all published dashboard announcements.
      </Link>
    </li>
    <li>
      <Link
        replace={false}
        to="/sandbox/cms/testing"
      >
        CMS-related testing.
      </Link>
    </li>
  </ul>
  <h3>
    Misc Examples
  </h3>
  <ul>
    <li>
      <Link
        replace={false}
        to="/examples/countdown"
      >
        Countdown
      </Link>
    </li>
    <li>
      <Link
        replace={false}
        to="/examples/announcement/5yaVZtOH9CYoQ0QYQk0uoY"
      >
        Announcement
      </Link>
       
      — This is a part of simple PoC for CMS integration (Countentful CMS is the currently tested option);
    </li>
    <li>
      <Link
        replace={false}
        to="/examples/buttons/"
      >
        Buttons
      </Link>
       
      — Demo/test of standard buttons already available in the code, and customizable with help of
      <code>
        react-css-themr
      </code>
      .
    </li>
    <li>
      <Link
        replace={false}
        to="/examples/carousel"
      >
        Carousel
      </Link>
    </li>
    <li>
      <Link
        replace={false}
        to="/examples/code-splitting"
      >
        Code Splitting
      </Link>
    </li>
    <li>
      <Link
        replace={false}
        to="/examples/color-mixins"
      >
        Color Mixins
      </Link>
       
      — Live demo of TC UI Kit color pallete;
    </li>
    <li>
      <Link
        replace={false}
        to="/examples/css-modules"
      >
        CSS Modules
      </Link>
       
      - Demo/test of CSS modules in action;
    </li>
    <li>
      <Link
        replace={false}
        to="/examples/data-fetch"
      >
        Data Fetch
      </Link>
       
      - Demonstrates how data fetching should be implemented in isomorphic way, using Redux with Flux Standard Actions and promise;
    </li>
    <li>
      <Link
        replace={false}
        to="/examples/editor"
      >
        Editor
      </Link>
    </li>
    <li>
      <Link
        replace={false}
        to="/examples/error-message"
      >
        Error Message
      </Link>
       
      - Demonstrates UI component for errors messaging;
    </li>
    <li>
      <Link
        replace={false}
        to="/examples/fonts-test"
      >
        Fonts Test
      </Link>
       
      - A simple showcase of the fonts included into this repo, and the test of their proper inclusion into the bundle;
    </li>
    <li>
      <Link
        replace={false}
        to="/examples/link-test"
      >
        Link Test
      </Link>
    </li>
    <li>
      <Link
        replace={false}
        to="/examples/loading-indicators"
      >
        Loading Indicators
      </Link>
    </li>
    <li>
      <Link
        replace={false}
        to="/examples/markdown"
      >
        Markdown Rendering
      </Link>
      ‌ – A component that can be passed markdown as a prop and will render it as native React elements.  Also supports inlining a subset of the JSX Components found in Community App.
    </li>
    <li>
      <Link
        replace={false}
        to="/examples/scalable-rect"
      >
        ScalableRect
      </Link>
       
      component makes it easy to create dynamically scaled components with fixed side ratio.
    </li>
    <li>
      <Link
        replace={false}
        to="/examples/svg-loading"
      >
        SVG Loading
      </Link>
       
      - Shows how to load
      <code>
        .svg
      </code>
       
      assets with use of
      <code>
        babel-plugin-inline-react-svg
      </code>
      .
    </li>
    <li>
      <Link
        replace={false}
        to="/examples/tags/"
      >
        Tags
      </Link>
       
      - Demo/test of standard tags already available in the code, and customizable with help of
      <code>
        react-css-themr
      </code>
      .
    </li>
    <li>
      <Link
        replace={false}
        to="/examples/themr"
      >
        Super Themr
      </Link>
       
      - Test/demo of
      <code>
        react-css-super-themr
      </code>
      .
    </li>
    <li>
      <Link
        replace={false}
        to="/examples/typography"
      >
        Typography
      </Link>
       
      - Most of Topcoder websites use the same styleguide for the design. In particular, all typography is supposed to use the set of styles from this example. For all these styles we have global mixins, which should be used whenever possible (but never modified without explicit approval).
    </li>
  </ul>
</div>
`;
